DataPath File/isim.log
ISim log file
Running: C:\Users\Ammar\Desktop\Coal Project (1)\MIPSProcessor16bit\test_isim_beh.exe -intstyle ise -gui -tclbatch isim.cmd -wdb C:/Users/Ammar/Desktop/Coal Project (1)/MIPSProcessor16bit/test_isim_beh.wdb 
ISim P.20131013 (signature 0x7708f090)
This is a Full version of ISim.
WARNING:  For instance fetch/alu1/, width 1 of formal port less is not equal to width 32 of actual constant.
WARNING:  For instance fetch/alu2/, width 1 of formal port less is not equal to width 32 of actual constant.
WARNING:  For instance fetch/alu3/, width 1 of formal port less is not equal to width 32 of actual constant.
WARNING:  For instance fetch/alu4/, width 1 of formal port less is not equal to width 32 of actual constant.
WARNING:  For instance fetch/alu5/, width 1 of formal port less is not equal to width 32 of actual constant.
WARNING:  For instance fetch/alu6/, width 1 of formal port less is not equal to width 32 of actual constant.
WARNING:  For instance fetch/alu7/, width 1 of formal port less is not equal to width 32 of actual constant.
WARNING:  For instance fetch/alu8/, width 1 of formal port less is not equal to width 32 of actual constant.
WARNING:  For instance fetch/alu9/, width 1 of formal port less is not equal to width 32 of actual constant.
WARNING:  For instance fetch/alu10/, width 1 of formal port less is not equal to width 32 of actual constant.
WARNING:  For instance fetch/alu11/, width 1 of formal port less is not equal to width 32 of actual constant.
WARNING:  For instance fetch/alu12/, width 1 of formal port less is not equal to width 32 of actual constant.
WARNING:  For instance fetch/alu13/, width 1 of formal port less is not equal to width 32 of actual constant.
WARNING:  For instance fetch/alu14/, width 1 of formal port less is not equal to width 32 of actual constant.
WARNING:  For instance fetch/alu15/, width 1 of formal port less is not equal to width 32 of actual constant.
WARNING:  For instance test_cpu/fetch/, width 16 of formal port b is not equal to width 32 of actual constant.
WARNING:  For instance rf/mux1/, width 16 of formal port i0 is not equal to width 32 of actual constant.
WARNING:  For instance rf/mux2/, width 16 of formal port i0 is not equal to width 32 of actual constant.
WARNING:  For instance branch/alu1/, width 1 of formal port less is not equal to width 32 of actual constant.
WARNING:  For instance branch/alu2/, width 1 of formal port less is not equal to width 32 of actual constant.
WARNING:  For instance branch/alu3/, width 1 of formal port less is not equal to width 32 of actual constant.
WARNING:  For instance branch/alu4/, width 1 of formal port less is not equal to width 32 of actual constant.
WARNING:  For instance branch/alu5/, width 1 of formal port less is not equal to width 32 of actual constant.
WARNING:  For instance branch/alu6/, width 1 of formal port less is not equal to width 32 of actual constant.
WARNING:  For instance branch/alu7/, width 1 of formal port less is not equal to width 32 of actual constant.
WARNING:  For instance branch/alu8/, width 1 of formal port less is not equal to width 32 of actual constant.
WARNING:  For instance branch/alu9/, width 1 of formal port less is not equal to width 32 of actual constant.
WARNING:  For instance branch/alu10/, width 1 of formal port less is not equal to width 32 of actual constant.
WARNING:  For instance branch/alu11/, width 1 of formal port less is not equal to width 32 of actual constant.
WARNING:  For instance branch/alu12/, width 1 of formal port less is not equal to width 32 of actual constant.
WARNING:  For instance branch/alu13/, width 1 of formal port less is not equal to width 32 of actual constant.
WARNING:  For instance branch/alu14/, width 1 of formal port less is not equal to width 32 of actual constant.
WARNING:  For instance branch/alu15/, width 1 of formal port less is not equal to width 32 of actual constant.
WARNING:  For instance ex/alu1/, width 1 of formal port less is not equal to width 32 of actual constant.
WARNING:  For instance ex/alu2/, width 1 of formal port less is not equal to width 32 of actual constant.
WARNING:  For instance ex/alu3/, width 1 of formal port less is not equal to width 32 of actual constant.
WARNING:  For instance ex/alu4/, width 1 of formal port less is not equal to width 32 of actual constant.
WARNING:  For instance ex/alu5/, width 1 of formal port less is not equal to width 32 of actual constant.
WARNING:  For instance ex/alu6/, width 1 of formal port less is not equal to width 32 of actual constant.
WARNING:  For instance ex/alu7/, width 1 of formal port less is not equal to width 32 of actual constant.
WARNING:  For instance ex/alu8/, width 1 of formal port less is not equal to width 32 of actual constant.
WARNING:  For instance ex/alu9/, width 1 of formal port less is not equal to width 32 of actual constant.
WARNING:  For instance ex/alu10/, width 1 of formal port less is not equal to width 32 of actual constant.
WARNING:  For instance ex/alu11/, width 1 of formal port less is not equal to width 32 of actual constant.
WARNING:  For instance ex/alu12/, width 1 of formal port less is not equal to width 32 of actual constant.
WARNING:  For instance ex/alu13/, width 1 of formal port less is not equal to width 32 of actual constant.
WARNING:  For instance ex/alu14/, width 1 of formal port less is not equal to width 32 of actual constant.
WARNING:  For instance ex/alu15/, width 1 of formal port less is not equal to width 32 of actual constant.
Time resolution is 1 ps
# onerror resume
# wave add /
# run 1000 ns
Simulator is doing circuit initialization process.
time PC  IFID_IR  IDEX_IR  EXMEM_IR MEMWB_IR WD
Finished circuit initialization process.
0  0  0000     xxxx     xxxx    xxxx     xxxx
1  2  1120     0000     xxxx    xxxx     xxxx
3  4  2192     1120     0000    xxxx     xxxx
5  6  329c     2192     1120    0000     0000
7  8  0000     329c     2192    1120     xxxx
9  10  09c0     0000     329c    2192     0000
11  12  0000     09c0     0000    329c     xxxx
13  14  4359     0000     09c0    0000     0000
15  16  0000     4359     0000    09c0     xxxx
17  18  09c0     0000     4359    0000     0000
19  20  0000     09c0     0000    4359     0059
21  22  0000     0000     09c0    0000     0000
23  24  4359     0000     0000    09c0     xxxx
25  26  0000     4359     0000    0000     0000
27  28  1640     0000     4359    0000     0000
29  30  0000     1640     0000    4359     0059
31  32  4359     0000     1640    0000     0000
33  34  655a     4359     0000    1640     xxxx
35  36  09c0     655a     4359    0000     0000
37  38  xxxx     09c0     655a    4359     0059
39  40  xxxx     xxxx     09c0    655a     xxxx
41  42  xxxx     xxxx     xxxx    09c0     xxxx
43  44  xxxx     xxxx     xxxx    xxxx     xxxx
45  46  xxxx     xxxx     xxxx    xxxx     xxxx
47  48  xxxx     xxxx     xxxx    xxxx     xxxx
49  50  xxxx     xxxx     xxxx    xxxx     xxxx
51  52  xxxx     xxxx     xxxx    xxxx     xxxx
53  54  xxxx     xxxx     xxxx    xxxx     xxxx
55  56  xxxx     xxxx     xxxx    xxxx     xxxx
57  58  xxxx     xxxx     xxxx    xxxx     xxxx
59  60  xxxx     xxxx     xxxx    xxxx     xxxx
61  62  xxxx     xxxx     xxxx    xxxx     xxxx
63  64  xxxx     xxxx     xxxx    xxxx     xxxx
65  66  xxxx     xxxx     xxxx    xxxx     xxxx
67  68  xxxx     xxxx     xxxx    xxxx     xxxx
69  70  xxxx     xxxx     xxxx    xxxx     xxxx
71  72  xxxx     xxxx     xxxx    xxxx     xxxx
73  74  xxxx     xxxx     xxxx    xxxx     xxxx
75  76  xxxx     xxxx     xxxx    xxxx     xxxx
77  78  xxxx     xxxx     xxxx    xxxx     xxxx
79  80  xxxx     xxxx     xxxx    xxxx     xxxx
81  82  xxxx     xxxx     xxxx    xxxx     xxxx
83  84  xxxx     xxxx     xxxx    xxxx     xxxx
85  86  xxxx     xxxx     xxxx    xxxx     xxxx
87  88  xxxx     xxxx     xxxx    xxxx     xxxx
89  90  xxxx     xxxx     xxxx    xxxx     xxxx
91  92  xxxx     xxxx     xxxx    xxxx     xxxx
93  94  xxxx     xxxx     xxxx    xxxx     xxxx
95  96  xxxx     xxxx     xxxx    xxxx     xxxx
97  98  xxxx     xxxx     xxxx    xxxx     xxxx
99  100  xxxx     xxxx     xxxx    xxxx     xxxx
101  102  xxxx     xxxx     xxxx    xxxx     xxxx
103  104  xxxx     xxxx     xxxx    xxxx     xxxx
105  106  xxxx     xxxx     xxxx    xxxx     xxxx
107  108  xxxx     xxxx     xxxx    xxxx     xxxx
109  110  xxxx     xxxx     xxxx    xxxx     xxxx
111  112  xxxx     xxxx     xxxx    xxxx     xxxx
113  114  xxxx     xxxx     xxxx    xxxx     xxxx
115  116  xxxx     xxxx     xxxx    xxxx     xxxx
117  118  xxxx     xxxx     xxxx    xxxx     xxxx
119  120  xxxx     xxxx     xxxx    xxxx     xxxx
121  122  xxxx     xxxx     xxxx    xxxx     xxxx
123  124  xxxx     xxxx     xxxx    xxxx     xxxx
125  126  xxxx     xxxx     xxxx    xxxx     xxxx
127  128  xxxx     xxxx     xxxx    xxxx     xxxx
129  130  xxxx     xxxx     xxxx    xxxx     xxxx
131  132  xxxx     xxxx     xxxx    xxxx     xxxx
133  134  xxxx     xxxx     xxxx    xxxx     xxxx
135  136  xxxx     xxxx     xxxx    xxxx     xxxx
137  138  xxxx     xxxx     xxxx    xxxx     xxxx
139  140  xxxx     xxxx     xxxx    xxxx     xxxx
141  142  xxxx     xxxx     xxxx    xxxx     xxxx
143  144  xxxx     xxxx     xxxx    xxxx     xxxx
145  146  xxxx     xxxx     xxxx    xxxx     xxxx
147  148  xxxx     xxxx     xxxx    xxxx     xxxx
149  150  xxxx     xxxx     xxxx    xxxx     xxxx
151  152  xxxx     xxxx     xxxx    xxxx     xxxx
153  154  xxxx     xxxx     xxxx    xxxx     xxxx
155  156  xxxx     xxxx     xxxx    xxxx     xxxx
157  158  xxxx     xxxx     xxxx    xxxx     xxxx
159  160  xxxx     xxxx     xxxx    xxxx     xxxx
161  162  xxxx     xxxx     xxxx    xxxx     xxxx
163  164  xxxx     xxxx     xxxx    xxxx     xxxx
165  166  xxxx     xxxx     xxxx    xxxx     xxxx
167  168  xxxx     xxxx     xxxx    xxxx     xxxx
169  170  xxxx     xxxx     xxxx    xxxx     xxxx
171  172  xxxx     xxxx     xxxx    xxxx     xxxx
173  174  xxxx     xxxx     xxxx    xxxx     xxxx
175  176  xxxx     xxxx     xxxx    xxxx     xxxx
177  178  xxxx     xxxx     xxxx    xxxx     xxxx
179  180  xxxx     xxxx     xxxx    xxxx     xxxx
181  182  xxxx     xxxx     xxxx    xxxx     xxxx
183  184  xxxx     xxxx     xxxx    xxxx     xxxx
185  186  xxxx     xxxx     xxxx    xxxx     xxxx
187  188  xxxx     xxxx     xxxx    xxxx     xxxx
189  190  xxxx     xxxx     xxxx    xxxx     xxxx
191  192  xxxx     xxxx     xxxx    xxxx     xxxx
193  194  xxxx     xxxx     xxxx    xxxx     xxxx
195  196  xxxx     xxxx     xxxx    xxxx     xxxx
197  198  xxxx     xxxx     xxxx    xxxx     xxxx
199  200  xxxx     xxxx     xxxx    xxxx     xxxx
201  202  xxxx     xxxx     xxxx    xxxx     xxxx
203  204  xxxx     xxxx     xxxx    xxxx     xxxx
205  206  xxxx     xxxx     xxxx    xxxx     xxxx
207  208  xxxx     xxxx     xxxx    xxxx     xxxx
209  210  xxxx     xxxx     xxxx    xxxx     xxxx
211  212  xxxx     xxxx     xxxx    xxxx     xxxx
213  214  xxxx     xxxx     xxxx    xxxx     xxxx
215  216  xxxx     xxxx     xxxx    xxxx     xxxx
217  218  xxxx     xxxx     xxxx    xxxx     xxxx
219  220  xxxx     xxxx     xxxx    xxxx     xxxx
221  222  xxxx     xxxx     xxxx    xxxx     xxxx
223  224  xxxx     xxxx     xxxx    xxxx     xxxx
225  226  xxxx     xxxx     xxxx    xxxx     xxxx
227  228  xxxx     xxxx     xxxx    xxxx     xxxx
229  230  xxxx     xxxx     xxxx    xxxx     xxxx
231  232  xxxx     xxxx     xxxx    xxxx     xxxx
233  234  xxxx     xxxx     xxxx    xxxx     xxxx
235  236  xxxx     xxxx     xxxx    xxxx     xxxx
237  238  xxxx     xxxx     xxxx    xxxx     xxxx
239  240  xxxx     xxxx     xxxx    xxxx     xxxx
241  242  xxxx     xxxx     xxxx    xxxx     xxxx
243  244  xxxx     xxxx     xxxx    xxxx     xxxx
245  246  xxxx     xxxx     xxxx    xxxx     xxxx
247  248  xxxx     xxxx     xxxx    xxxx     xxxx
249  250  xxxx     xxxx     xxxx    xxxx     xxxx
251  252  xxxx     xxxx     xxxx    xxxx     xxxx
253  254  xxxx     xxxx     xxxx    xxxx     xxxx
255  256  xxxx     xxxx     xxxx    xxxx     xxxx
257  258  xxxx     xxxx     xxxx    xxxx     xxxx
259  260  xxxx     xxxx     xxxx    xxxx     xxxx
261  262  xxxx     xxxx     xxxx    xxxx     xxxx
263  264  xxxx     xxxx     xxxx    xxxx     xxxx
265  266  xxxx     xxxx     xxxx    xxxx     xxxx
267  268  xxxx     xxxx     xxxx    xxxx     xxxx
269  270  xxxx     xxxx     xxxx    xxxx     xxxx
271  272  xxxx     xxxx     xxxx    xxxx     xxxx
273  274  xxxx     xxxx     xxxx    xxxx     xxxx
275  276  xxxx     xxxx     xxxx    xxxx     xxxx
277  278  xxxx     xxxx     xxxx    xxxx     xxxx
279  280  xxxx     xxxx     xxxx    xxxx     xxxx
281  282  xxxx     xxxx     xxxx    xxxx     xxxx
283  284  xxxx     xxxx     xxxx    xxxx     xxxx
285  286  xxxx     xxxx     xxxx    xxxx     xxxx
287  288  xxxx     xxxx     xxxx    xxxx     xxxx
289  290  xxxx     xxxx     xxxx    xxxx     xxxx
291  292  xxxx     xxxx     xxxx    xxxx     xxxx
293  294  xxxx     xxxx     xxxx    xxxx     xxxx
295  296  xxxx     xxxx     xxxx    xxxx     xxxx
297  298  xxxx     xxxx     xxxx    xxxx     xxxx
299  300  xxxx     xxxx     xxxx    xxxx     xxxx
301  302  xxxx     xxxx     xxxx    xxxx     xxxx
303  304  xxxx     xxxx     xxxx    xxxx     xxxx
305  306  xxxx     xxxx     xxxx    xxxx     xxxx
307  308  xxxx     xxxx     xxxx    xxxx     xxxx
309  310  xxxx     xxxx     xxxx    xxxx     xxxx
311  312  xxxx     xxxx     xxxx    xxxx     xxxx
313  314  xxxx     xxxx     xxxx    xxxx     xxxx
315  316  xxxx     xxxx     xxxx    xxxx     xxxx
317  318  xxxx     xxxx     xxxx    xxxx     xxxx
319  320  xxxx     xxxx     xxxx    xxxx     xxxx
321  322  xxxx     xxxx     xxxx    xxxx     xxxx
323  324  xxxx     xxxx     xxxx    xxxx     xxxx
325  326  xxxx     xxxx     xxxx    xxxx     xxxx
327  328  xxxx     xxxx     xxxx    xxxx     xxxx
329  330  xxxx     xxxx     xxxx    xxxx     xxxx
331  332  xxxx     xxxx     xxxx    xxxx     xxxx
333  334  xxxx     xxxx     xxxx    xxxx     xxxx
335  336  xxxx     xxxx     xxxx    xxxx     xxxx
337  338  xxxx     xxxx     xxxx    xxxx     xxxx
339  340  xxxx     xxxx     xxxx    xxxx     xxxx
341  342  xxxx     xxxx     xxxx    xxxx     xxxx
343  344  xxxx     xxxx     xxxx    xxxx     xxxx
345  346  xxxx     xxxx     xxxx    xxxx     xxxx
347  348  xxxx     xxxx     xxxx    xxxx     xxxx
349  350  xxxx     xxxx     xxxx    xxxx     xxxx
351  352  xxxx     xxxx     xxxx    xxxx     xxxx
353  354  xxxx     xxxx     xxxx    xxxx     xxxx
355  356  xxxx     xxxx     xxxx    xxxx     xxxx
357  358  xxxx     xxxx     xxxx    xxxx     xxxx
359  360  xxxx     xxxx     xxxx    xxxx     xxxx
361  362  xxxx     xxxx     xxxx    xxxx     xxxx
363  364  xxxx     xxxx     xxxx    xxxx     xxxx
365  366  xxxx     xxxx     xxxx    xxxx     xxxx
367  368  xxxx     xxxx     xxxx    xxxx     xxxx
369  370  xxxx     xxxx     xxxx    xxxx     xxxx
371  372  xxxx     xxxx     xxxx    xxxx     xxxx
373  374  xxxx     xxxx     xxxx    xxxx     xxxx
375  376  xxxx     xxxx     xxxx    xxxx     xxxx
377  378  xxxx     xxxx     xxxx    xxxx     xxxx
379  380  xxxx     xxxx     xxxx    xxxx     xxxx
381  382  xxxx     xxxx     xxxx    xxxx     xxxx
383  384  xxxx     xxxx     xxxx    xxxx     xxxx
385  386  xxxx     xxxx     xxxx    xxxx     xxxx
387  388  xxxx     xxxx     xxxx    xxxx     xxxx
389  390  xxxx     xxxx     xxxx    xxxx     xxxx
391  392  xxxx     xxxx     xxxx    xxxx     xxxx
393  394  xxxx     xxxx     xxxx    xxxx     xxxx
395  396  xxxx     xxxx     xxxx    xxxx     xxxx
397  398  xxxx     xxxx     xxxx    xxxx     xxxx
399  400  xxxx     xxxx     xxxx    xxxx     xxxx
401  402  xxxx     xxxx     xxxx    xxxx     xxxx
403  404  xxxx     xxxx     xxxx    xxxx     xxxx
405  406  xxxx     xxxx     xxxx    xxxx     xxxx
407  408  xxxx     xxxx     xxxx    xxxx     xxxx
409  410  xxxx     xxxx     xxxx    xxxx     xxxx
411  412  xxxx     xxxx     xxxx    xxxx     xxxx
413  414  xxxx     xxxx     xxxx    xxxx     xxxx
415  416  xxxx     xxxx     xxxx    xxxx     xxxx
417  418  xxxx     xxxx     xxxx    xxxx     xxxx
419  420  xxxx     xxxx     xxxx    xxxx     xxxx
421  422  xxxx     xxxx     xxxx    xxxx     xxxx
423  424  xxxx     xxxx     xxxx    xxxx     xxxx
425  426  xxxx     xxxx     xxxx    xxxx     xxxx
427  428  xxxx     xxxx     xxxx    xxxx     xxxx
429  430  xxxx     xxxx     xxxx    xxxx     xxxx
431  432  xxxx     xxxx     xxxx    xxxx     xxxx
433  434  xxxx     xxxx     xxxx    xxxx     xxxx
435  436  xxxx     xxxx     xxxx    xxxx     xxxx
437  438  xxxx     xxxx     xxxx    xxxx     xxxx
439  440  xxxx     xxxx     xxxx    xxxx     xxxx
441  442  xxxx     xxxx     xxxx    xxxx     xxxx
443  444  xxxx     xxxx     xxxx    xxxx     xxxx
445  446  xxxx     xxxx     xxxx    xxxx     xxxx
447  448  xxxx     xxxx     xxxx    xxxx     xxxx
449  450  xxxx     xxxx     xxxx    xxxx     xxxx
451  452  xxxx     xxxx     xxxx    xxxx     xxxx
453  454  xxxx     xxxx     xxxx    xxxx     xxxx
455  456  xxxx     xxxx     xxxx    xxxx     xxxx
457  458  xxxx     xxxx     xxxx    xxxx     xxxx
459  460  xxxx     xxxx     xxxx    xxxx     xxxx
461  462  xxxx     xxxx     xxxx    xxxx     xxxx
463  464  xxxx     xxxx     xxxx    xxxx     xxxx
465  466  xxxx     xxxx     xxxx    xxxx     xxxx
467  468  xxxx     xxxx     xxxx    xxxx     xxxx
469  470  xxxx     xxxx     xxxx    xxxx     xxxx
471  472  xxxx     xxxx     xxxx    xxxx     xxxx
473  474  xxxx     xxxx     xxxx    xxxx     xxxx
475  476  xxxx     xxxx     xxxx    xxxx     xxxx
477  478  xxxx     xxxx     xxxx    xxxx     xxxx
479  480  xxxx     xxxx     xxxx    xxxx     xxxx
481  482  xxxx     xxxx     xxxx    xxxx     xxxx
483  484  xxxx     xxxx     xxxx    xxxx     xxxx
485  486  xxxx     xxxx     xxxx    xxxx     xxxx
487  488  xxxx     xxxx     xxxx    xxxx     xxxx
489  490  xxxx     xxxx     xxxx    xxxx     xxxx
491  492  xxxx     xxxx     xxxx    xxxx     xxxx
493  494  xxxx     xxxx     xxxx    xxxx     xxxx
495  496  xxxx     xxxx     xxxx    xxxx     xxxx
497  498  xxxx     xxxx     xxxx    xxxx     xxxx
499  500  xxxx     xxxx     xxxx    xxxx     xxxx
501  502  xxxx     xxxx     xxxx    xxxx     xxxx
503  504  xxxx     xxxx     xxxx    xxxx     xxxx
505  506  xxxx     xxxx     xxxx    xxxx     xxxx
507  508  xxxx     xxxx     xxxx    xxxx     xxxx
509  510  xxxx     xxxx     xxxx    xxxx     xxxx
511  512  xxxx     xxxx     xxxx    xxxx     xxxx
513  514  xxxx     xxxx     xxxx    xxxx     xxxx
515  516  xxxx     xxxx     xxxx    xxxx     xxxx
517  518  xxxx     xxxx     xxxx    xxxx     xxxx
519  520  xxxx     xxxx     xxxx    xxxx     xxxx
521  522  xxxx     xxxx     xxxx    xxxx     xxxx
523  524  xxxx     xxxx     xxxx    xxxx     xxxx
525  526  xxxx     xxxx     xxxx    xxxx     xxxx
527  528  xxxx     xxxx     xxxx    xxxx     xxxx
529  530  xxxx     xxxx     xxxx    xxxx     xxxx
531  532  xxxx     xxxx     xxxx    xxxx     xxxx
533  534  xxxx     xxxx     xxxx    xxxx     xxxx
535  536  xxxx     xxxx     xxxx    xxxx     xxxx
537  538  xxxx     xxxx     xxxx    xxxx     xxxx
539  540  xxxx     xxxx     xxxx    xxxx     xxxx
541  542  xxxx     xxxx     xxxx    xxxx     xxxx
543  544  xxxx     xxxx     xxxx    xxxx     xxxx
545  546  xxxx     xxxx     xxxx    xxxx     xxxx
547  548  xxxx     xxxx     xxxx    xxxx     xxxx
549  550  xxxx     xxxx     xxxx    xxxx     xxxx
551  552  xxxx     xxxx     xxxx    xxxx     xxxx
553  554  xxxx     xxxx     xxxx    xxxx     xxxx
555  556  xxxx     xxxx     xxxx    xxxx     xxxx
557  558  xxxx     xxxx     xxxx    xxxx     xxxx
559  560  xxxx     xxxx     xxxx    xxxx     xxxx
561  562  xxxx     xxxx     xxxx    xxxx     xxxx
563  564  xxxx     xxxx     xxxx    xxxx     xxxx
565  566  xxxx     xxxx     xxxx    xxxx     xxxx
567  568  xxxx     xxxx     xxxx    xxxx     xxxx
569  570  xxxx     xxxx     xxxx    xxxx     xxxx
571  572  xxxx     xxxx     xxxx    xxxx     xxxx
573  574  xxxx     xxxx     xxxx    xxxx     xxxx
575  576  xxxx     xxxx     xxxx    xxxx     xxxx
577  578  xxxx     xxxx     xxxx    xxxx     xxxx
579  580  xxxx     xxxx     xxxx    xxxx     xxxx
581  582  xxxx     xxxx     xxxx    xxxx     xxxx
583  584  xxxx     xxxx     xxxx    xxxx     xxxx
585  586  xxxx     xxxx     xxxx    xxxx     xxxx
587  588  xxxx     xxxx     xxxx    xxxx     xxxx
589  590  xxxx     xxxx     xxxx    xxxx     xxxx
591  592  xxxx     xxxx     xxxx    xxxx     xxxx
593  594  xxxx     xxxx     xxxx    xxxx     xxxx
595  596  xxxx     xxxx     xxxx    xxxx     xxxx
597  598  xxxx     xxxx     xxxx    xxxx     xxxx
599  600  xxxx     xxxx     xxxx    xxxx     xxxx
601  602  xxxx     xxxx     xxxx    xxxx     xxxx
603  604  xxxx     xxxx     xxxx    xxxx     xxxx
605  606  xxxx     xxxx     xxxx    xxxx     xxxx
607  608  xxxx     xxxx     xxxx    xxxx     xxxx
609  610  xxxx     xxxx     xxxx    xxxx     xxxx
611  612  xxxx     xxxx     xxxx    xxxx     xxxx
613  614  xxxx     xxxx     xxxx    xxxx     xxxx
615  616  xxxx     xxxx     xxxx    xxxx     xxxx
617  618  xxxx     xxxx     xxxx    xxxx     xxxx
619  620  xxxx     xxxx     xxxx    xxxx     xxxx
621  622  xxxx     xxxx     xxxx    xxxx     xxxx
623  624  xxxx     xxxx     xxxx    xxxx     xxxx
625  626  xxxx     xxxx     xxxx    xxxx     xxxx
627  628  xxxx     xxxx     xxxx    xxxx     xxxx
629  630  xxxx     xxxx     xxxx    xxxx     xxxx
631  632  xxxx     xxxx     xxxx    xxxx     xxxx
633  634  xxxx     xxxx     xxxx    xxxx     xxxx
635  636  xxxx     xxxx     xxxx    xxxx     xxxx
637  638  xxxx     xxxx     xxxx    xxxx     xxxx
639  640  xxxx     xxxx     xxxx    xxxx     xxxx
641  642  xxxx     xxxx     xxxx    xxxx     xxxx
643  644  xxxx     xxxx     xxxx    xxxx     xxxx
645  646  xxxx     xxxx     xxxx    xxxx     xxxx
647  648  xxxx     xxxx     xxxx    xxxx     xxxx
649  650  xxxx     xxxx     xxxx    xxxx     xxxx
651  652  xxxx     xxxx     xxxx    xxxx     xxxx
653  654  xxxx     xxxx     xxxx    xxxx     xxxx
655  656  xxxx     xxxx     xxxx    xxxx     xxxx
657  658  xxxx     xxxx     xxxx    xxxx     xxxx
659  660  xxxx     xxxx     xxxx    xxxx     xxxx
661  662  xxxx     xxxx     xxxx    xxxx     xxxx
663  664  xxxx     xxxx     xxxx    xxxx     xxxx
665  666  xxxx     xxxx     xxxx    xxxx     xxxx
667  668  xxxx     xxxx     xxxx    xxxx     xxxx
669  670  xxxx     xxxx     xxxx    xxxx     xxxx
671  672  xxxx     xxxx     xxxx    xxxx     xxxx
673  674  xxxx     xxxx     xxxx    xxxx     xxxx
675  676  xxxx     xxxx     xxxx    xxxx     xxxx
677  678  xxxx     xxxx     xxxx    xxxx     xxxx
679  680  xxxx     xxxx     xxxx    xxxx     xxxx
681  682  xxxx     xxxx     xxxx    xxxx     xxxx
683  684  xxxx     xxxx     xxxx    xxxx     xxxx
685  686  xxxx     xxxx     xxxx    xxxx     xxxx
687  688  xxxx     xxxx     xxxx    xxxx     xxxx
689  690  xxxx     xxxx     xxxx    xxxx     xxxx
691  692  xxxx     xxxx     xxxx    xxxx     xxxx
693  694  xxxx     xxxx     xxxx    xxxx     xxxx
695  696  xxxx     xxxx     xxxx    xxxx     xxxx
697  698  xxxx     xxxx     xxxx    xxxx     xxxx
699  700  xxxx     xxxx     xxxx    xxxx     xxxx
701  702  xxxx     xxxx     xxxx    xxxx     xxxx
703  704  xxxx     xxxx     xxxx    xxxx     xxxx
705  706  xxxx     xxxx     xxxx    xxxx     xxxx
707  708  xxxx     xxxx     xxxx    xxxx     xxxx
709  710  xxxx     xxxx     xxxx    xxxx     xxxx
711  712  xxxx     xxxx     xxxx    xxxx     xxxx
713  714  xxxx     xxxx     xxxx    xxxx     xxxx
715  716  xxxx     xxxx     xxxx    xxxx     xxxx
717  718  xxxx     xxxx     xxxx    xxxx     xxxx
719  720  xxxx     xxxx     xxxx    xxxx     xxxx
721  722  xxxx     xxxx     xxxx    xxxx     xxxx
723  724  xxxx     xxxx     xxxx    xxxx     xxxx
725  726  xxxx     xxxx     xxxx    xxxx     xxxx
727  728  xxxx     xxxx     xxxx    xxxx     xxxx
729  730  xxxx     xxxx     xxxx    xxxx     xxxx
731  732  xxxx     xxxx     xxxx    xxxx     xxxx
733  734  xxxx     xxxx     xxxx    xxxx     xxxx
735  736  xxxx     xxxx     xxxx    xxxx     xxxx
737  738  xxxx     xxxx     xxxx    xxxx     xxxx
739  740  xxxx     xxxx     xxxx    xxxx     xxxx
741  742  xxxx     xxxx     xxxx    xxxx     xxxx
743  744  xxxx     xxxx     xxxx    xxxx     xxxx
745  746  xxxx     xxxx     xxxx    xxxx     xxxx
747  748  xxxx     xxxx     xxxx    xxxx     xxxx
749  750  xxxx     xxxx     xxxx    xxxx     xxxx
751  752  xxxx     xxxx     xxxx    xxxx     xxxx
753  754  xxxx     xxxx     xxxx    xxxx     xxxx
755  756  xxxx     xxxx     xxxx    xxxx     xxxx
757  758  xxxx     xxxx     xxxx    xxxx     xxxx
759  760  xxxx     xxxx     xxxx    xxxx     xxxx
761  762  xxxx     xxxx     xxxx    xxxx     xxxx
763  764  xxxx     xxxx     xxxx    xxxx     xxxx
765  766  xxxx     xxxx     xxxx    xxxx     xxxx
767  768  xxxx     xxxx     xxxx    xxxx     xxxx
769  770  xxxx     xxxx     xxxx    xxxx     xxxx
771  772  xxxx     xxxx     xxxx    xxxx     xxxx
773  774  xxxx     xxxx     xxxx    xxxx     xxxx
775  776  xxxx     xxxx     xxxx    xxxx     xxxx
777  778  xxxx     xxxx     xxxx    xxxx     xxxx
779  780  xxxx     xxxx     xxxx    xxxx     xxxx
781  782  xxxx     xxxx     xxxx    xxxx     xxxx
783  784  xxxx     xxxx     xxxx    xxxx     xxxx
785  786  xxxx     xxxx     xxxx    xxxx     xxxx
787  788  xxxx     xxxx     xxxx    xxxx     xxxx
789  790  xxxx     xxxx     xxxx    xxxx     xxxx
791  792  xxxx     xxxx     xxxx    xxxx     xxxx
793  794  xxxx     xxxx     xxxx    xxxx     xxxx
795  796  xxxx     xxxx     xxxx    xxxx     xxxx
797  798  xxxx     xxxx     xxxx    xxxx     xxxx
799  800  xxxx     xxxx     xxxx    xxxx     xxxx
801  802  xxxx     xxxx     xxxx    xxxx     xxxx
803  804  xxxx     xxxx     xxxx    xxxx     xxxx
805  806  xxxx     xxxx     xxxx    xxxx     xxxx
807  808  xxxx     xxxx     xxxx    xxxx     xxxx
809  810  xxxx     xxxx     xxxx    xxxx     xxxx
811  812  xxxx     xxxx     xxxx    xxxx     xxxx
813  814  xxxx     xxxx     xxxx    xxxx     xxxx
815  816  xxxx     xxxx     xxxx    xxxx     xxxx
817  818  xxxx     xxxx     xxxx    xxxx     xxxx
819  820  xxxx     xxxx     xxxx    xxxx     xxxx
821  822  xxxx     xxxx     xxxx    xxxx     xxxx
823  824  xxxx     xxxx     xxxx    xxxx     xxxx
825  826  xxxx     xxxx     xxxx    xxxx     xxxx
827  828  xxxx     xxxx     xxxx    xxxx     xxxx
829  830  xxxx     xxxx     xxxx    xxxx     xxxx
831  832  xxxx     xxxx     xxxx    xxxx     xxxx
833  834  xxxx     xxxx     xxxx    xxxx     xxxx
835  836  xxxx     xxxx     xxxx    xxxx     xxxx
837  838  xxxx     xxxx     xxxx    xxxx     xxxx
839  840  xxxx     xxxx     xxxx    xxxx     xxxx
841  842  xxxx     xxxx     xxxx    xxxx     xxxx
843  844  xxxx     xxxx     xxxx    xxxx     xxxx
845  846  xxxx     xxxx     xxxx    xxxx     xxxx
847  848  xxxx     xxxx     xxxx    xxxx     xxxx
849  850  xxxx     xxxx     xxxx    xxxx     xxxx
851  852  xxxx     xxxx     xxxx    xxxx     xxxx
853  854  xxxx     xxxx     xxxx    xxxx     xxxx
855  856  xxxx     xxxx     xxxx    xxxx     xxxx
857  858  xxxx     xxxx     xxxx    xxxx     xxxx
859  860  xxxx     xxxx     xxxx    xxxx     xxxx
861  862  xxxx     xxxx     xxxx    xxxx     xxxx
863  864  xxxx     xxxx     xxxx    xxxx     xxxx
865  866  xxxx     xxxx     xxxx    xxxx     xxxx
867  868  xxxx     xxxx     xxxx    xxxx     xxxx
869  870  xxxx     xxxx     xxxx    xxxx     xxxx
871  872  xxxx     xxxx     xxxx    xxxx     xxxx
873  874  xxxx     xxxx     xxxx    xxxx     xxxx
875  876  xxxx     xxxx     xxxx    xxxx     xxxx
877  878  xxxx     xxxx     xxxx    xxxx     xxxx
879  880  xxxx     xxxx     xxxx    xxxx     xxxx
881  882  xxxx     xxxx     xxxx    xxxx     xxxx
883  884  xxxx     xxxx     xxxx    xxxx     xxxx
